<?xml version="1.0" encoding="utf-8"?>
<!-- Generator: Adobe Illustrator 22.1.0, SVG Export Plug-In . SVG Version: 6.00 Build 0)  -->
<svg version="1.1" id="Camada_1" xmlns="http://www.w3.org/2000/svg" xmlns:xlink="http://www.w3.org/1999/xlink" x="0px" y="0px"
	 viewBox="0 0 10 10" style="enable-background:new 0 0 10 10;" xml:space="preserve">
<style type="text/css">
	.st0{fill-rule:evenodd;clip-rule:evenodd;fill:#FCFCFC;}
</style>
<g>
	<g>
		<defs>
			<path id="SVGID_1_" d="M10,5c0,2.8-2.2,5-5,5c-2.8,0-5-2.2-5-5c0-2.8,2.2-5,5-5C7.8,0,10,2.2,10,5z"/>
		</defs>
		<clipPath id="SVGID_2_">
			<use xlink:href="#SVGID_1_"  style="overflow:visible;"/>
		</clipPath>
		<g style="clip-path:url(#SVGID_2_);">
			
				<image style="overflow:visible;" width="12" height="12" xlink:href="data:image/png;base64,iVBORw0KGgoAAAANSUhEUgAAAAwAAAAMCAIAAADZF8uwAAAACXBIWXMAAAsSAAALEgHS3X78AAAA
GXRFWHRTb2Z0d2FyZQBBZG9iZSBJbWFnZVJlYWR5ccllPAAAAVxJREFUeNo8jztvFEEQhLvntTv7
uNPZh7HsQwQIiYiYlP8fOyFAQiI4w8Eiz+7MzqubPQIqaKlKre768POnp2OKD/7HkNY+rQuOx/wb
GBM03+wp6FbWoB7D+U2cHuJzJttRvKu/dvQCIBLZg3Nf27dN8er9+n1P/jVfBnIGC4BscF14p2AK
NI5LiKzUR3y6by7GBouhkTG6Dqrova+gO/ItpYkH9e7mS29iZ5wShRm6YaZVj+nPfL6pFAxVpKhe
3Z61zlJvjwBIyDZzkpCFFCX+HPTCTFnAtcW/jU18HcL+t7glPTpl9h41QAtwEBgZXIEI0oa2yxuG
hlIyqjyy/tBxrIAAgcXAPBNfGG019z4nJi+VPBnxOODQQQgcIj1HNJVcoRlBV7HLyEXhyYrjAZTG
2ztyk9QTuQQvMy51O822ylUKNfZif0Rjrz21gcOIVgFtOMAZKUMt/FeAAQDUCMAhci0xxAAAAABJ
RU5ErkJggg==" transform="matrix(1 0 0 1 -1 -1)">
			</image>
		</g>
	</g>
	<path class="st0" d="M7,2.3c-1.3,0-2.7,0-4,0C2.5,2.3,2.3,2.6,2.3,3c0,0.7,0,1.3,0,2c0,0.7,0,1.3,0,2c0,0.5,0.3,0.7,0.7,0.7
		c1.3,0,2.7,0,4,0c0.5,0,0.7-0.3,0.7-0.7c0-1.3,0-2.6,0-4C7.7,2.6,7.4,2.3,7,2.3z M6.5,2.9c0.5,0,0.5,0,0.5,0.5C7.1,4,7.1,4,6.5,4
		C6,4,6,4,6,3.4C6,2.9,6,2.9,6.5,2.9z M5,4C5.6,4,6,4.4,6,5C6,5.6,5.5,6.1,5,6C4.4,6,3.9,5.6,3.9,5C3.9,4.4,4.4,4,5,4z M7.1,6.8
		C7.1,7,7,7.1,6.8,7.1c-0.6,0-1.2,0-1.8,0c-0.6,0-1.2,0-1.8,0C3,7.1,2.9,7,2.9,6.8c0-0.6,0-1.3,0-2c0-0.2,0.1-0.2,0.2-0.2
		c0.2,0,0.3,0,0.2,0.2C3.2,5.7,3.8,6.5,4.6,6.6c0.9,0.2,1.7-0.3,1.9-1.2c0.1-0.3,0.1-0.5,0-0.8c0-0.1,0-0.1,0.1-0.1
		c0.4,0,0.4,0,0.4,0.3C7.1,5.5,7.1,6.2,7.1,6.8z"/>
</g>
</svg>
